dump.vcd
$date
	Wed Jul 16 15:27:18 2025
$end
$version
	Icarus Verilog
$end
$timescale
	1s
$end
$scope module sync_fifo_TB $end
$var wire 1 ! full $end
$var wire 1 " empty $end
$var wire 8 # data_out [7:0] $end
$var parameter 32 $ D_WIDTH $end
$var reg 1 % clk $end
$var reg 8 & data_in [7:0] $end
$var reg 1 ' r_en $end
$var reg 1 ( rst_n $end
$var reg 1 ) w_en $end
$var reg 8 * wdata [7:0] $end
$scope module s_fifo $end
$var wire 1 % clk $end
$var wire 8 + data_in [7:0] $end
$var wire 1 ' r_en $end
$var wire 1 ( rst_n $end
$var wire 1 ) w_en $end
$var wire 1 ! full $end
$var wire 1 " empty $end
$var parameter 32 , DEPTH $end
$var parameter 32 - D_WIDTH $end
$var reg 3 . count [2:0] $end
$var reg 8 / data_out [7:0] $end
$var reg 3 0 r_ptr [2:0] $end
$var reg 3 1 w_ptr [2:0] $end
$upscope $end
$scope begin $ivl_for_loop0 $end
$var integer 32 2 i [31:0] $end
$upscope $end
$scope begin $ivl_for_loop1 $end
$var integer 32 3 i [31:0] $end
$upscope $end
$upscope $end
$enddefinitions $end
$comment Show the parameter values. $end
$dumpall
b1000 -
b1000 ,
b1000 $
$end
#0
$dumpvars
b0 3
b0 2
bx 1
bx 0
bx /
bx .
b0 +
bx *
0)
0(
0'
b0 &
0%
bx #
x"
0!
$end
#5
1"
b0 .
b0 #
b0 /
b0 0
b0 1
1%
#10
0%
#15
1%
#20
0%
#25
1%
#30
0%
#35
1%
#40
0%
#45
1%
#50
0%
#55
1%
#60
0%
#65
1%
#70
0%
#75
1%
#80
0%
#85
1%
#90
0%
#95
1(
1%
#100
0%
#105
0"
b1 .
b1 1
b1 2
b100100 &
b100100 +
1)
1%
#110
0%
#115
b10 1
b10 .
b10 2
0)
1%
#120
0%
#125
b11 .
b11 1
b11 2
b10000001 &
b10000001 +
1)
1%
#130
0%
#135
b100 1
b100 .
b100 2
0)
1%
#140
0%
#145
b101 .
b101 1
b101 2
b1001 &
b1001 +
1)
1%
#150
0%
#155
b110 1
b110 .
b110 2
0)
1%
#160
0%
#165
b111 .
b111 1
b111 2
b1100011 &
b1100011 +
1)
1%
#170
0%
#175
b0 1
1"
b0 .
b1000 2
0)
1%
#180
0%
#185
0"
b1 .
b1 1
b1001 2
b1101 &
b1101 +
1)
1%
#190
0%
#195
b10 1
b10 .
b1010 2
0)
1%
#200
0%
#205
b11 1
b1 0
b1101 #
b1101 /
b1011 2
b10001101 &
b10001101 +
1)
1'
1%
#206
b1 3
b100100 *
#210
0%
#215
b100 1
b11 .
b1100 2
0)
b10 3
0'
1%
#220
0%
#225
b100 .
b101 1
1'
b1101 2
b1100101 &
b1100101 +
1)
1%
#226
b11 3
b10000001 *
#230
0%
#235
b110 1
b101 .
b1110 2
0)
b100 3
0'
1%
#240
0%
#245
b110 .
b111 1
1'
b1111 2
b10010 &
b10010 +
1)
1%
#246
b101 3
b1001 *
#250
0%
#255
b0 1
b111 .
b10000 2
0)
b110 3
0'
1%
#260
0%
#265
1"
b0 .
b1 1
1'
b10001 2
b1 &
b1 +
1)
1%
#266
b111 3
b1100011 *
#270
0%
#275
b10 1
0"
b1 .
b10010 2
0)
b1000 3
0'
1%
#280
0%
#285
b10 .
b11 1
1'
b10011 2
b1101 &
b1101 +
1)
1%
#286
b1001 3
b1101 *
#290
0%
#295
b100 1
b11 .
b10100 2
0)
b1010 3
0'
1%
#300
0%
#305
b100 .
b101 1
1'
b10101 2
b1110110 &
b1110110 +
1)
1%
#306
b1011 3
b10001101 *
#310
0%
#315
b110 1
b101 .
b10110 2
0)
b1100 3
0'
1%
#320
0%
#325
b110 .
b111 1
1'
b10111 2
b111101 &
b111101 +
1)
1%
#326
b1101 3
b1100101 *
#330
0%
#335
b0 1
b111 .
b11000 2
0)
b1110 3
0'
1%
#340
0%
#345
1"
b0 .
b1 1
1'
b11001 2
b11101101 &
b11101101 +
1)
1%
#346
b1111 3
b10010 *
#350
0%
#355
b10 1
0"
b1 .
b11010 2
0)
b10000 3
0'
1%
#360
0%
#365
b10 .
b11 1
1'
b11011 2
b10001100 &
b10001100 +
1)
1%
#366
b10001 3
b1 *
#370
0%
#375
b100 1
b11 .
b11100 2
0)
b10010 3
0'
1%
#380
0%
#385
b100 .
b101 1
1'
b11101 2
b11111001 &
b11111001 +
1)
1%
#386
b10011 3
b1101 *
#390
0%
#395
b110 1
b101 .
b11110 2
0)
b10100 3
0'
1%
#400
0%
#405
1'
1%
#406
b10101 3
b1110110 *
#410
0%
#415
b10110 3
0'
1%
#420
0%
#425
1'
1%
#426
b10111 3
b111101 *
#430
0%
#435
b11000 3
0'
1%
#440
0%
#445
b110 .
b111 1
1'
b11000110 &
b11000110 +
1)
1%
b1 2
#446
b11001 3
b11101101 *
#450
0%
#455
b0 1
b111 .
b10 2
0)
b11010 3
0'
1%
#460
0%
#465
1"
b0 .
b1 1
1'
b11 2
b11000101 &
b11000101 +
1)
1%
#466
b11011 3
b10001100 *
#470
0%
#475
b10 1
0"
b1 .
b100 2
0)
b11100 3
0'
1%
#480
0%
#485
b10 .
b11 1
1'
b101 2
b10101010 &
b10101010 +
1)
1%
#486
b11101 3
b11111001 *
#490
0%
#495
b100 1
b11 .
b110 2
0)
b11110 3
0'
1%
#500
0%
#505
b100 .
b101 1
b111 2
b11100101 &
b11100101 +
1)
1%
#510
0%
#515
b110 1
b101 .
b1000 2
0)
1%
#520
0%
#525
b110 .
b111 1
b1001 2
b1110111 &
b1110111 +
1)
1%
#530
0%
#535
b0 1
b111 .
b1010 2
0)
1%
#540
0%
#545
b1 1
b10 0
b11000101 #
b11000101 /
b1011 2
b10010 &
b10010 +
1)
1'
1%
b0 3
#546
b1 3
b11000110 *
#550
0%
#555
b10 1
1"
b0 .
b1100 2
0)
b10 3
0'
1%
#560
0%
#565
0"
b1 .
b11 1
b11 3
1'
b1101 2
b10001111 &
b10001111 +
1)
1%
#570
0%
#575
b100 1
b10 .
b1110 2
0)
b100 3
0'
1%
#580
0%
#585
b11 .
b101 1
1'
b1111 2
b11110010 &
b11110010 +
1)
1%
#586
b101 3
b11000101 *
#590
0%
#595
b110 1
b100 .
b10000 2
0)
b110 3
0'
1%
#600
0%
#605
b101 .
b111 1
1'
b10001 2
b11001110 &
b11001110 +
1)
1%
#606
b111 3
b10101010 *
#610
0%
#615
b0 1
b110 .
b10010 2
0)
b1000 3
0'
1%
#620
0%
#625
b111 .
b1 1
1'
b10011 2
b11101000 &
b11101000 +
1)
1%
#626
b1001 3
b11100101 *
#630
0%
#635
b10 1
1"
b0 .
b10100 2
0)
b1010 3
0'
1%
#640
0%
#645
0"
b1 .
b11 1
b1011 3
1'
b10101 2
b11000101 &
b11000101 +
1)
1%
#650
0%
#655
b100 1
b10 .
b10110 2
0)
b1100 3
0'
1%
#660
0%
#665
b11 .
b101 1
1'
b10111 2
b1011100 &
b1011100 +
1)
1%
#666
b1101 3
b1110111 *
#670
0%
#675
b110 1
b100 .
b11000 2
0)
b1110 3
0'
1%
#680
0%
#685
b101 .
b111 1
1'
b11001 2
b10111101 &
b10111101 +
1)
1%
#686
b1111 3
b10010 *
#690
0%
#695
b0 1
b110 .
b11010 2
0)
b10000 3
0'
1%
#700
0%
#705
b111 .
b1 1
1'
b11011 2
b101101 &
b101101 +
1)
1%
#706
b10001 3
b10001111 *
#710
0%
#715
b10 1
1"
b0 .
b11100 2
0)
b10010 3
0'
1%
#720
0%
#725
0"
b1 .
b11 1
b10011 3
1'
b11101 2
b1100101 &
b1100101 +
1)
1%
#730
0%
#735
b100 1
b10 .
b11110 2
0)
b10100 3
0'
1%
#740
0%
#745
1'
1%
#746
b10101 3
b11110010 *
#750
0%
#755
b10110 3
0'
1%
#760
0%
#765
1'
1%
#766
b10111 3
b11001110 *
#770
0%
#775
b11000 3
0'
1%
#780
0%
#785
1'
1%
#786
b11001 3
b11101000 *
#790
0%
#795
b11010 3
0'
1%
#800
0%
#805
1'
1%
#806
b11011 3
b11000101 *
#810
0%
#815
b11100 3
0'
1%
#820
0%
#825
1'
1%
#826
b11101 3
b1011100 *
#830
0%
#835
b11110 3
0'
1%
